<svg width="30" height="44" viewBox="0 0 30 44" fill="none" xmlns="http://www.w3.org/2000/svg">
<path d="M25.5775 4.5C22.7558 1.6 19.0584 0 14.9719 0C10.9826 0 7.18793 1.6 4.36625 4.5C-0.887904 9.9 -1.4717 20 3.00406 26.2L15.0692 44L27.037 26.2C31.5127 20 30.8316 9.9 25.5775 4.5Z" fill="#E1E41E"/>
<path d="M18.7666 18.5H11.08C10.8854 18.5 10.7881 18.6 10.7881 18.8C10.7881 19 10.8854 19.1 11.08 19.1H18.7666C18.9612 19.1 19.0585 19 19.0585 18.8C19.1558 18.6 18.9612 18.5 18.7666 18.5Z" fill="white"/>
<path d="M13.9988 18V16.2C13.9988 16 14.0961 15.8 14.2907 15.8H15.6529C15.8475 15.8 15.9448 16 15.9448 16.2V18H18.8638V8.9C18.8638 8.4 18.4746 8 17.9881 8H12.1501C11.6636 8 11.2744 8.4 11.2744 8.9V18H13.9988ZM12.2474 17.1C12.1501 17.1 12.1501 17 12.1501 16.9V16.1C12.1501 16 12.1501 15.9 12.2474 15.9H13.0258C13.1231 15.9 13.1231 16 13.1231 16.1V16.9C13.1231 17 13.1231 17.1 13.0258 17.1H12.2474ZM16.9178 17.1C16.8205 17.1 16.8205 17 16.8205 16.9V16.1C16.8205 16 16.8205 15.9 16.9178 15.9H17.6962C17.7935 15.9 17.7935 16 17.7935 16.1V16.9C17.7935 17 17.7935 17.1 17.6962 17.1H16.9178ZM12.2474 14.9C12.1501 14.9 12.1501 14.8 12.1501 14.7V13.9C12.1501 13.8 12.1501 13.7 12.2474 13.7H13.0258C13.1231 13.7 13.1231 13.8 13.1231 13.9V14.7C13.1231 14.8 13.1231 14.9 13.0258 14.9H12.2474ZM16.9178 14.9C16.8205 14.9 16.8205 14.8 16.8205 14.7V13.9C16.8205 13.8 16.8205 13.7 16.9178 13.7H17.6962C17.7935 13.7 17.7935 13.8 17.7935 13.9V14.7C17.7935 14.8 17.7935 14.9 17.6962 14.9H16.9178ZM14.5826 14.9C14.4853 14.9 14.4853 14.8 14.4853 14.7V13.9C14.4853 13.8 14.4853 13.7 14.5826 13.7H15.361C15.4583 13.7 15.4583 13.8 15.4583 13.9V14.7C15.4583 14.8 15.4583 14.9 15.361 14.9H14.5826ZM12.2474 13C12.1501 13 12.1501 12.9 12.1501 12.8V12C12.1501 11.9 12.1501 11.8 12.2474 11.8H13.0258C13.1231 11.8 13.1231 11.9 13.1231 12V12.8C13.1231 12.9 13.1231 13 13.0258 13H12.2474ZM16.9178 13C16.8205 13 16.8205 12.9 16.8205 12.8V12C16.8205 11.9 16.8205 11.8 16.9178 11.8H17.6962C17.7935 11.8 17.7935 11.9 17.7935 12V12.8C17.7935 12.9 17.7935 13 17.6962 13H16.9178ZM14.5826 13C14.4853 13 14.4853 12.9 14.4853 12.8V12C14.4853 11.9 14.4853 11.8 14.5826 11.8H15.361C15.4583 11.8 15.4583 11.9 15.4583 12V12.8C15.4583 12.9 15.4583 13 15.361 13H14.5826ZM12.2474 11C12.1501 11 12.1501 10.9 12.1501 10.8V10C12.1501 9.9 12.1501 9.8 12.2474 9.8H13.0258C13.1231 9.8 13.1231 9.9 13.1231 10V10.8C13.1231 10.9 13.1231 11 13.0258 11H12.2474ZM16.9178 11C16.8205 11 16.8205 10.9 16.8205 10.8V10C16.8205 9.9 16.8205 9.8 16.9178 9.8H17.6962C17.7935 9.8 17.7935 9.9 17.7935 10V10.8C17.7935 10.9 17.7935 11 17.6962 11H16.9178ZM14.5826 11C14.4853 11 14.4853 10.9 14.4853 10.8V10C14.4853 9.9 14.4853 9.8 14.5826 9.8H15.361C15.4583 9.8 15.4583 9.9 15.4583 10V10.8C15.4583 10.9 15.4583 11 15.361 11H14.5826ZM11.6636 8.7C11.7609 8.5 12.0528 8.4 12.442 8.4C13.2204 8.4 17.8908 8.4 17.8908 8.4C17.8908 8.4 17.9881 8.4 18.1827 8.5C18.28 8.6 18.4746 8.7 18.4746 9C18.4746 9.1 18.4746 9.1 18.3773 9.1C18.28 9.1 18.28 9.1 18.28 9C18.1827 8.8 18.0854 8.7 18.0854 8.6C17.8908 8.6 17.8908 8.6 17.7935 8.6C17.7935 8.6 13.2204 8.6 12.3447 8.6C11.9555 8.6 11.7609 8.7 11.7609 8.8C11.6636 9 11.6636 9.1 11.6636 9.1C11.6636 9.2 11.6636 9.2 11.5663 9.2C11.469 9.2 11.469 9.2 11.469 9.1C11.469 9.1 11.469 8.9 11.6636 8.7Z" fill="white"/>
<path d="M15.0689 19.4H14.8743H13.9013L13.2202 20.7H14.8743H15.0689H16.723L16.0419 19.4H15.0689Z" fill="white"/>
<path d="M10.0095 14V13.9C10.0095 13.5 9.6203 13.1 9.2311 13.1C8.84191 13.1 8.45271 13.5 8.45271 13.9V14C8.06351 14.1 7.67432 14.4 7.67432 14.9C7.67432 15.3 7.96621 15.6 8.25811 15.8C8.35541 16.1 8.64731 16.3 8.93921 16.3V17.9C8.93921 18 9.03651 18.1 9.1338 18.1C9.2311 18.1 9.3284 18 9.3284 17.9V16.3C9.6203 16.2 9.9122 16 10.0095 15.8C10.3987 15.7 10.5933 15.4 10.5933 14.9C10.6906 14.4 10.3987 14.1 10.0095 14ZM8.35541 14.4C8.35541 14.4 8.35541 14.5 8.35541 14.4C8.25811 14.5 8.25811 14.5 8.16081 14.5C8.06351 14.6 7.96622 14.7 7.96622 14.9C7.96622 14.9 7.96622 14.9 7.96622 15C7.96622 15.1 7.96621 15.1 7.86892 15.1C7.77162 15.1 7.77162 15.1 7.77162 15V14.9C7.77162 14.7 7.86892 14.5 7.96622 14.4C8.06351 14.3 8.16081 14.2 8.16081 14.2H8.25811C8.45271 14.3 8.45271 14.4 8.35541 14.4ZM9.3284 13.6C9.13381 13.6 9.03651 13.8 8.93921 13.9C8.84191 14 8.84191 14.1 8.84191 14.2C8.84191 14.3 8.84191 14.3 8.74461 14.3C8.64731 14.3 8.64731 14.3 8.64731 14.2C8.64731 14.2 8.64731 14.1 8.64731 14C8.64731 13.9 8.74461 13.8 8.84191 13.6C8.93921 13.5 9.03651 13.5 9.1338 13.4C9.2311 13.4 9.2311 13.4 9.2311 13.5C9.4257 13.5 9.3284 13.5 9.3284 13.6Z" fill="white"/>
<path d="M21.4909 14V13.9C21.4909 13.5 21.1017 13.1 20.7125 13.1C20.3234 13.1 19.9342 13.5 19.9342 13.9V14C19.545 14.1 19.1558 14.4 19.1558 14.9C19.1558 15.3 19.4477 15.6 19.7396 15.8C19.8369 16.1 20.1288 16.3 20.4207 16.3V17.9C20.4207 18 20.518 18.1 20.6152 18.1C20.7125 18.1 20.8098 18 20.8098 17.9V16.3C21.1017 16.2 21.3936 16 21.4909 15.8C21.8801 15.7 22.0747 15.4 22.0747 14.9C22.172 14.4 21.8801 14.1 21.4909 14ZM19.9342 14.4C19.8369 14.4 19.8369 14.5 19.9342 14.4C19.8369 14.5 19.8369 14.5 19.7396 14.5C19.6423 14.6 19.545 14.7 19.545 14.9C19.545 14.9 19.545 14.9 19.545 15C19.545 15.1 19.545 15.1 19.4477 15.1C19.3504 15.1 19.3504 15.1 19.3504 15V14.9C19.3504 14.7 19.4477 14.5 19.545 14.4C19.6423 14.3 19.7396 14.2 19.7396 14.2H19.8369C19.9342 14.3 19.9342 14.4 19.9342 14.4ZM20.8098 13.6C20.6153 13.6 20.5179 13.8 20.4207 13.9C20.3234 14 20.3234 14.1 20.3234 14.2C20.3234 14.3 20.3234 14.3 20.2261 14.3C20.1288 14.3 20.1288 14.3 20.1288 14.2C20.1288 14.2 20.1288 14.1 20.1288 14C20.1288 13.9 20.2261 13.8 20.3234 13.6C20.4207 13.5 20.518 13.5 20.6152 13.4C20.7125 13.4 20.7125 13.4 20.7125 13.5C20.9071 13.5 20.8098 13.5 20.8098 13.6Z" fill="white"/>
<path d="M14.7772 6.80005C14.8745 6.80005 14.8745 6.80005 14.7772 6.80005L14.4853 6.70005C14.4853 6.70005 14.388 6.70005 14.388 6.60005L14.2907 6.30005H14.1934L13.9988 6.60005L13.9015 6.70005H13.6097C13.6097 6.70005 13.5124 6.70005 13.6097 6.80005L13.8042 7.00005C13.8042 7.00005 13.9015 7.10005 13.8042 7.10005L13.7069 7.40005C13.7069 7.40005 13.707 7.50005 13.8042 7.40005L14.0961 7.20005H14.1934L14.5826 7.60005H14.6799L14.5826 7.20005V7.10005L14.7772 6.80005ZM14.1934 6.60005C14.1934 6.60005 14.0961 6.70005 14.0961 6.80005C14.0961 6.90005 13.9988 6.90005 13.9988 6.90005H13.9015H13.8042C13.8042 6.90005 13.8042 6.90005 13.9015 6.90005H13.9988C13.9988 6.90005 14.0961 6.90005 14.0961 6.80005V6.70005C14.0961 6.60005 14.0961 6.60005 14.1934 6.60005C14.1934 6.50005 14.0961 6.60005 14.1934 6.60005Z" fill="white"/>
<path d="M16.4312 6.80005L16.1393 6.70005C16.1393 6.70005 16.042 6.70005 16.042 6.60005L15.9447 6.30005H15.8474L15.5555 6.60005L15.4582 6.70005H15.1663C15.1663 6.70005 15.069 6.70005 15.1663 6.80005L15.3609 7.00005C15.3609 7.00005 15.4582 7.10005 15.3609 7.10005L15.2636 7.40005C15.2636 7.40005 15.2636 7.50005 15.3609 7.40005L15.6528 7.20005H15.7501L16.042 7.40005H16.1393L16.042 7.10005V7.00005L16.4312 6.80005ZM15.7501 6.60005C15.7501 6.60005 15.6528 6.70005 15.6528 6.80005C15.6528 6.90005 15.5555 6.90005 15.5555 6.90005H15.4582H15.3609C15.3609 6.90005 15.3609 6.90005 15.4582 6.90005H15.5555C15.5555 6.90005 15.6528 6.90005 15.6528 6.80005V6.70005C15.6528 6.60005 15.6528 6.60005 15.7501 6.60005C15.7501 6.50005 15.7501 6.60005 15.7501 6.60005Z" fill="white"/>
<path d="M13.9988 5.30005L13.7069 5.20005C13.7069 5.20005 13.6096 5.20005 13.6096 5.10005L13.5123 4.80005H13.415L13.3177 5.10005L13.2204 5.20005H12.9285C12.9285 5.20005 12.8312 5.20005 12.9285 5.30005L13.1231 5.50005C13.1231 5.50005 13.2204 5.60005 13.1231 5.60005L13.0258 5.90005C13.0258 5.90005 13.0258 6.00005 13.1231 5.90005L13.415 5.70005H13.5123L13.8042 5.90005H13.9015L13.8042 5.60005V5.50005L13.9988 5.30005ZM13.415 5.10005C13.415 5.10005 13.3177 5.20005 13.3177 5.30005C13.3177 5.40005 13.2204 5.40005 13.2204 5.40005H13.1231H13.0258C13.0258 5.40005 13.0258 5.40005 13.1231 5.40005H13.2204C13.2204 5.40005 13.3177 5.40005 13.3177 5.30005V5.20005C13.3177 5.10005 13.3177 5.10005 13.415 5.10005C13.3177 5.00005 13.3177 5.10005 13.415 5.10005Z" fill="white"/>
<path d="M15.5554 5.30005C15.6527 5.30005 15.6527 5.30005 15.5554 5.30005L15.2635 5.20005C15.2635 5.20005 15.1662 5.20005 15.1662 5.10005L15.0689 4.80005H14.9716L14.8743 5.10005L14.777 5.20005H14.4851C14.4851 5.20005 14.3878 5.20005 14.4851 5.30005L14.5824 5.60005C14.5824 5.60005 14.6797 5.70005 14.5824 5.70005V6.00005C14.5824 6.00005 14.5824 6.10005 14.6797 6.00005L14.9716 5.80005H15.0689L15.3608 6.00005H15.4581L15.3608 5.70005V5.60005L15.5554 5.30005ZM14.9716 5.10005C14.9716 5.10005 14.8743 5.20005 14.8743 5.30005C14.8743 5.40005 14.777 5.40005 14.777 5.40005H14.6797H14.5824C14.5824 5.40005 14.5824 5.40005 14.6797 5.40005H14.777C14.777 5.40005 14.8743 5.40005 14.8743 5.30005V5.20005C14.8743 5.10005 14.8743 5.10005 14.9716 5.10005C14.9716 5.00005 14.9716 5.10005 14.9716 5.10005Z" fill="white"/>
<path d="M17.2097 5.30005L16.9178 5.20005C16.9178 5.20005 16.8205 5.20005 16.8205 5.10005L16.7232 4.80005H16.6259L16.5286 5.10005L16.4313 5.20005H16.1394C16.1394 5.20005 16.0421 5.20005 16.1394 5.30005L16.334 5.50005C16.334 5.50005 16.4313 5.60005 16.334 5.60005L16.2367 5.90005C16.2367 5.90005 16.2367 6.00005 16.334 5.90005L16.6259 5.70005H16.7232L17.0151 5.90005H17.1124L17.0151 5.60005V5.50005L17.2097 5.30005ZM16.6259 5.10005C16.6259 5.10005 16.5286 5.20005 16.5286 5.30005C16.5286 5.40005 16.4313 5.40005 16.4313 5.40005H16.334H16.2367C16.2367 5.40005 16.2367 5.40005 16.334 5.40005H16.4313C16.4313 5.40005 16.5286 5.40005 16.5286 5.30005V5.20005C16.5286 5.10005 16.5286 5.10005 16.6259 5.10005C16.5286 5.00005 16.5286 5.10005 16.6259 5.10005Z" fill="white"/>
</svg>
