<svg width="464" height="464" viewBox="0 0 464 464" fill="none" xmlns="http://www.w3.org/2000/svg">
<path d="M232 462C359.025 462 462 359.025 462 232C462 104.975 359.025 2 232 2C104.975 2 2 104.975 2 232C2 359.025 104.975 462 232 462Z" fill="white"/>
<path d="M168.8 212.2C181.9 212.2 192.5 222.8 192.5 235.9V275.4H168.8V212.2Z" fill="#F9E109"/>
<path d="M216.2 275.5H192.5V236C192.5 222.9 203.1 212.3 216.2 212.3V275.5Z" fill="#F9E109"/>
<path d="M196.4 222.9V224.1C196.4 237 204.2 248.6 216.2 253.4V212.3C208.2 212.2 200.8 216.2 196.4 222.9Z" fill="#FCBC04"/>
<path d="M156.9 228C176.5 228 192.5 243.9 192.5 263.6V283.4H184.6C169.3 283.4 156.9 271 156.9 255.7V228Z" fill="#FCBC04"/>
<path d="M204.3 283.4H192.4V263.6C192.4 244 208.3 228 228 228V259.6C228 272.8 217.4 283.4 204.3 283.4Z" fill="#FCBC04"/>
<path d="M201.1 240.5C206.8 249.9 217.1 255.7 228.1 255.7V228C217.7 228.1 207.8 232.6 201.1 240.5Z" fill="#E59730"/>
<path d="M184.6 283.4H200.4V346.6H184.6V283.4Z" fill="#A1D51C"/>
<path d="M152.9 311.1H160.8C173.9 311.1 184.5 321.7 184.5 334.8H176.6C163.6 334.8 152.9 324.1 152.9 311.1Z" fill="#A1D51C"/>
<path d="M176.7 326.9C166.7 326.9 157.7 320.6 154.4 311.1H153C153 324.2 163.6 334.8 176.7 334.8H184.6C184.6 332.1 184.1 329.4 183.2 326.9H176.7Z" fill="#7AB92D"/>
<path d="M200.4 291.3V338.7C196 338.7 192.5 335.2 192.5 330.8V299.2C192.5 294.8 196 291.3 200.4 291.3Z" fill="#C4F236"/>
<path d="M164.8 243.9V229C162.2 228.4 159.6 228.1 156.9 228.1V255.8C156.9 271.1 169.3 283.5 184.6 283.5H192.5V275.3C176.7 273.2 164.8 259.8 164.8 243.9Z" fill="#E59730"/>
<path d="M192.5 275.2V283.4H204.4C211.1 283.4 217.5 280.5 222 275.5H196.5C195.1 275.5 193.8 275.4 192.5 275.2Z" fill="#E59730"/>
<path d="M236 117.4C257.8 117.4 275.5 135.1 275.5 156.9V196.4H236V117.4Z" fill="#F1A6BE"/>
<path d="M216.2 133.2C238 133.2 255.7 150.9 255.7 172.7V212.2H216.2V133.2Z" fill="#CE5983"/>
<path d="M295.2 212.2H255.7V172.7C255.7 150.9 273.4 133.2 295.2 133.2V212.2Z" fill="#CE5983"/>
<path d="M200.4 156.9C231 156.9 255.7 181.7 255.7 212.2V243.8H232C214.5 243.8 200.4 229.6 200.4 212.2V156.9Z" fill="#E76B93"/>
<path d="M279.4 243.9H255.7V212.3C255.7 181.7 280.5 157 311 157V212.3C311.1 229.7 296.9 243.9 279.4 243.9Z" fill="#E76B93"/>
<path d="M247.8 243.9H263.6V346.7H247.8V243.9Z" fill="#A1D51C"/>
<path d="M295.2 299.2H311C311 316.7 296.8 330.8 279.4 330.8H263.6C263.6 313.4 277.8 299.2 295.2 299.2Z" fill="#A1D51C"/>
<path d="M247.8 330.8H232C214.5 330.8 200.4 316.6 200.4 299.2H216.2C233.7 299.2 247.8 313.4 247.8 330.8Z" fill="#A1D51C"/>
<path d="M279.4 319H266C264.5 322.8 263.7 326.8 263.7 330.9H279.5C297 330.9 311.1 316.7 311.1 299.3H308.8C303.9 311.1 292.3 318.9 279.4 319Z" fill="#7AB92D"/>
<path d="M232 319C219.1 319 207.5 311.2 202.7 299.2H200.4C200.4 316.7 214.6 330.8 232 330.8H247.8C247.8 326.7 247 322.7 245.5 318.9H232V319Z" fill="#7AB92D"/>
<path d="M263.6 255.7V319C259.2 319 255.7 315.5 255.7 311.1V263.7C255.7 259.3 259.3 255.7 263.6 255.7Z" fill="#C4F236"/>
<path d="M212.2 180.6V158.2C208.3 157.3 204.3 156.9 200.3 156.9V212.2C200.3 229.7 214.5 243.8 231.9 243.8H255.6V231.3C230.7 227.4 212.3 205.9 212.2 180.6Z" fill="#CE5983"/>
<path d="M263.6 232C261 232 258.3 231.8 255.7 231.3V243.8H279.4C289 243.8 298.1 239.4 304.1 231.9H263.6V232Z" fill="#CE5983"/>
<path d="M216.2 133.2V145C238 145 255.7 162.7 255.7 184.5V172.6C255.7 150.9 238 133.2 216.2 133.2Z" fill="#E76B93"/>
<path d="M255.7 172.7V184.6C255.7 162.8 273.4 145.1 295.2 145.1V133.2C273.4 133.2 255.7 150.9 255.7 172.7Z" fill="#E76B93"/>
</svg>
