<svg width="250" height="250" viewBox="0 0 250 250" fill="none" xmlns="http://www.w3.org/2000/svg">
<path d="M213.384 213.384C262.205 164.562 262.205 85.4377 213.384 36.6162C164.562 -12.2054 85.4377 -12.2054 36.6162 36.6162C-12.2054 85.4377 -12.2054 164.562 36.6162 213.384C85.4377 262.205 164.613 262.205 213.384 213.384ZM80.1831 105.895L108.293 134.004L169.868 72.4798L191.651 94.2633L130.127 155.788L108.293 177.571L86.509 155.788L58.3997 127.678L80.1831 105.895Z" fill="black"/>
</svg>
