<svg width="456" height="456" viewBox="0 0 456 456" fill="none" xmlns="http://www.w3.org/2000/svg">
<path d="M228 455.5C167.2 455.5 110.1 431.9 67.1 388.8C24.2 345.9 0.5 288.8 0.5 228C0.5 167.2 24.1 110.1 67.1 67.0999C110.1 24.0999 167.2 0.399902 228 0.399902C288.8 0.399902 345.9 23.9999 388.9 67.0999C431.9 110.2 455.6 167.2 455.6 228C455.6 288.8 432 345.9 388.9 388.9C345.9 431.8 288.8 455.5 228 455.5Z" fill="white"/>
<path d="M285.5 228L190.1 132.6L170.5 152.1L246.4 228L170.5 303.9L190.1 323.4L285.5 228Z" fill="#828282"/>
</svg>
