<svg width="30" height="44" viewBox="0 0 30 44" fill="none" xmlns="http://www.w3.org/2000/svg">
<path d="M25.5775 4.5C22.7558 1.6 19.0584 0 14.9719 0C10.9826 0 7.18793 1.6 4.36625 4.5C-0.887904 9.9 -1.4717 20 3.00406 26.2L15.0692 44L27.037 26.2C31.5127 20 30.8316 9.9 25.5775 4.5Z" fill="#70C380"/>
<path d="M21.1017 15.5C20.8098 15.5 20.6152 15.7 20.6152 16V16.9H9.32846V13.1C9.32846 12.8 9.13386 12.6 8.84196 12.6C8.55007 12.6 8.35547 12.8 8.35547 13.1V19.6C8.35547 19.9 8.55007 20.1 8.84196 20.1C9.13386 20.1 9.32846 19.9 9.32846 19.6V18.5H20.7125V19.6C20.7125 19.9 20.9071 20.1 21.199 20.1C21.4909 20.1 21.6855 19.9 21.6855 19.6V16C21.5882 15.7 21.3936 15.5 21.1017 15.5Z" fill="white"/>
<path d="M10.3016 16.5H19.6423C19.9342 16.5 20.2261 16.2 20.2261 15.9C20.2261 15.8 20.2261 15.7 20.1288 15.6C20.0315 15.2 19.6423 14.2 18.0855 13.7C16.8206 13.3 13.4151 13.5 13.4151 13.5V15.4H10.3016C10.0097 15.4 9.71777 15.7 9.71777 16C9.71777 16.2 10.0097 16.5 10.3016 16.5ZM15.7503 14C16.7233 13.9 18.4747 14.1 18.9612 15C19.0585 15.2 18.8639 15.4 18.572 15.1C17.5017 14.4 16.9179 14.4 15.8476 14.4C15.5557 14.5 15.4584 14.1 15.7503 14Z" fill="white"/>
<path d="M11.8584 14.9C12.4422 14.9 12.9287 14.4 12.9287 13.8C12.9287 13.2 12.4422 12.7 11.8584 12.7C11.2746 12.7 10.7881 13.2 10.7881 13.8C10.7881 14.4 11.2746 14.9 11.8584 14.9Z" fill="white"/>
<path d="M12.1504 11.6V11.7C12.1504 11.8 12.2477 11.9 12.345 11.9H16.5289C16.6262 11.9 16.7235 11.8 16.7235 11.7C16.7235 11.6 16.7235 11.6 16.7235 11.6H12.1504Z" fill="white"/>
<path d="M14.2909 7.29995H14.8747C14.5828 6.99995 14.6801 6.69995 15.0693 6.09995C15.5558 5.39995 14.7774 4.69995 14.7774 4.69995C14.7774 4.69995 15.1666 5.39995 14.5828 6.09995C13.9017 6.89995 14.2909 7.29995 14.2909 7.29995Z" fill="white"/>
<path d="M13.8047 7.3C13.6101 7.2 13.6101 6.8 13.902 6.5C14.4858 5.9 14.0966 5.5 14.0966 5.5C14.0966 5.6 13.9993 5.9 13.5128 6.3C12.7344 6.8 13.0263 7.4 13.0263 7.4H13.8047V7.3Z" fill="white"/>
<path d="M15.1667 6.59998C14.8748 6.89998 15.264 7.29998 15.264 7.29998H15.9451C15.9451 7.29998 15.8478 7.29998 15.5559 7.09998C15.1667 6.89998 15.1667 6.59998 15.1667 6.59998Z" fill="white"/>
<path d="M18.0857 8.69995C18.0857 8.59995 17.9884 8.49995 17.8911 8.39995C17.7938 8.29995 17.6965 8.19995 17.5992 8.19995C17.5019 8.19995 17.4046 8.09995 17.3073 8.09995C17.21 8.09995 17.1127 8.09995 17.0154 8.19995V8.09995C17.0154 7.79995 16.6262 7.69995 16.1397 7.69995C15.8478 7.69995 15.1667 7.69995 14.3883 7.69995C13.7072 7.69995 13.0261 7.69995 12.6369 7.69995C12.1504 7.69995 11.7612 7.79995 11.7612 8.09995C11.7612 8.59995 11.8585 9.59995 12.1504 10.2C12.345 10.7 13.0261 11.3 13.9991 11.3H14.0964H14.5829H14.6802C15.6532 11.3 16.3343 10.8 16.5289 10.2H16.6262C16.8208 10.2 17.0154 10.2 17.21 10.1C17.4046 9.99995 17.5019 9.89995 17.6965 9.79995C17.7938 9.69995 17.8911 9.59995 17.9884 9.39995C18.0857 9.29995 18.0857 9.09995 18.0857 8.89995C18.183 8.89995 18.0857 8.79995 18.0857 8.69995ZM13.6099 10.4C13.6099 10.5 13.5126 10.5 13.4153 10.5C13.0261 10.3 12.8315 10.1 12.6369 9.69995C12.4423 9.39995 12.4423 8.99995 12.345 8.69995C12.345 8.59995 12.4423 8.59995 12.4423 8.49995C12.5396 8.49995 12.6369 8.59995 12.6369 8.59995C12.6369 8.89995 12.7342 9.29995 12.8315 9.49995C12.9288 9.79995 13.1234 9.99995 13.4153 10.1C13.6099 10.3 13.6099 10.3 13.6099 10.4ZM16.3343 8.09995H12.4423C12.4423 8.09995 12.345 8.09995 12.345 7.99995C12.345 7.99995 12.345 7.89995 12.4423 7.89995H16.3343C16.4316 7.89995 16.4316 7.89995 16.3343 8.09995C16.4316 8.09995 16.4316 7.99995 16.3343 8.09995ZM17.5992 9.19995C17.5992 9.29995 17.5019 9.39995 17.4046 9.39995C17.3073 9.49995 17.21 9.59995 17.1127 9.59995C17.0154 9.59995 16.9181 9.69995 16.8208 9.69995C16.9181 9.39995 16.9181 8.99995 17.0154 8.69995C17.0154 8.69995 17.1127 8.59995 17.21 8.59995C17.3073 8.59995 17.3073 8.59995 17.4046 8.59995H17.5019C17.5019 8.59995 17.5992 8.59995 17.5992 8.69995L17.6965 8.79995V8.89995C17.6965 9.09995 17.5992 9.09995 17.5992 9.19995Z" fill="white"/>
</svg>
