<svg width="30" height="44" viewBox="0 0 30 44" fill="none" xmlns="http://www.w3.org/2000/svg">
<path d="M25.5775 4.5C22.7558 1.6 19.0584 0 14.9719 0C10.9826 0 7.18793 1.6 4.36625 4.5C-0.887904 9.9 -1.4717 20 3.00406 26.2L15.0692 44L27.037 26.2C31.5127 20 30.8316 9.9 25.5775 4.5Z" fill="#FF9500"/>
<path fill-rule="evenodd" clip-rule="evenodd" d="M17.2099 16.5C16.3342 15.3 15.5559 14 14.8748 12.6V16.5H17.2099Z" fill="white"/>
<path fill-rule="evenodd" clip-rule="evenodd" d="M14.4856 12.7C13.8045 14.1 13.0261 15.4 12.1504 16.6H14.4856V12.7Z" fill="white"/>
<path fill-rule="evenodd" clip-rule="evenodd" d="M9.52322 14.6V16.5H11.5665C12.8314 14.9 13.9017 13.1 14.6801 11.2C15.5558 13.1 16.5288 14.9 17.7937 16.5H19.8369V14.6L21.9775 16.5H22.7559C19.545 13.9 16.5288 10.9 14.6801 6.59998C12.8314 10.9 9.81512 13.9 6.60425 16.5H7.38264L9.52322 14.6Z" fill="white"/>
<path fill-rule="evenodd" clip-rule="evenodd" d="M23.3398 17H6.11784C5.82595 17 5.63135 17.2 5.63135 17.5C5.63135 17.8 5.82595 18 6.11784 18H23.3398C23.6317 18 23.8263 17.8 23.8263 17.5C23.8263 17.3 23.6317 17 23.3398 17Z" fill="white"/>
</svg>
