<svg width="30" height="44" viewBox="0 0 30 44" fill="none" xmlns="http://www.w3.org/2000/svg">
<path d="M25.5775 4.5C22.7558 1.6 19.0584 0 14.9719 0C10.9826 0 7.18793 1.6 4.36625 4.5C-0.887904 9.9 -1.4717 20 3.00406 26.2L15.0692 44L27.037 26.2C31.5127 20 30.8316 9.9 25.5775 4.5Z" fill="#C36FB4"/>
<path d="M18.1829 13.6C16.918 13.2 13.4153 13.4 13.4153 13.4V15.3H10.2044C9.9125 15.3 9.62061 15.6 9.62061 15.9C9.62061 16.2 9.9125 16.5 10.2044 16.5H19.7397C20.0316 16.5 20.3235 16.2 20.3235 15.9C20.3235 15.8 20.3235 15.7 20.2262 15.6C20.1289 15.1 19.7397 14.1 18.1829 13.6ZM18.6694 15.1C17.5991 14.4 17.0153 14.4 15.8478 14.4C15.5559 14.4 15.4586 14 15.7505 14C16.7234 13.9 18.5721 14.1 19.0586 15C19.1559 15.1 18.9613 15.3 18.6694 15.1Z" fill="white"/>
<path d="M11.8584 14.8C12.4422 14.8 12.9287 14.3 12.9287 13.7C12.9287 13.1 12.4422 12.6 11.8584 12.6C11.2746 12.6 10.7881 13.1 10.7881 13.7C10.7881 14.3 11.2746 14.8 11.8584 14.8Z" fill="white"/>
<path d="M21.2964 8.59998C21.0045 8.59998 20.8099 8.79998 20.8099 9.09998V9.99998H9.23129V6.09998C9.23129 5.79998 9.03669 5.59998 8.7448 5.59998C8.4529 5.59998 8.2583 5.79998 8.2583 6.09998V12.7V12.8V12.9V19.6C8.2583 19.9 8.4529 20.1 8.7448 20.1C9.03669 20.1 9.23129 19.9 9.23129 19.6V18.5H20.8099V19.6C20.8099 19.9 21.0045 20.1 21.2964 20.1C21.5883 20.1 21.7829 19.9 21.7829 19.6V16.1V15.9V9.09998C21.7829 8.79998 21.491 8.59998 21.2964 8.59998ZM20.8099 16.8H9.23129V12.9V12.8V12.7V11.6H20.8099V15.9V16.1V16.8Z" fill="white"/>
<path d="M10.2044 9.59993H19.7397C20.0316 9.59993 20.3235 9.29993 20.3235 8.99993C20.3235 8.89993 20.3235 8.79993 20.2262 8.69993C20.1289 8.29993 19.7397 7.29993 18.1829 6.79993C16.918 6.39993 13.4153 6.59993 13.4153 6.59993V8.49993H10.2044C9.9125 8.49993 9.62061 8.79993 9.62061 9.09993C9.62061 9.39993 9.9125 9.59993 10.2044 9.59993ZM15.8478 7.09993C16.8207 6.99993 18.6694 7.19993 19.1559 8.09993C19.2532 8.29993 19.0586 8.49993 18.7667 8.19993C17.6964 7.49993 17.1126 7.49993 15.9451 7.49993C15.5559 7.59993 15.4586 7.19993 15.8478 7.09993Z" fill="white"/>
<path d="M11.8584 7.99993C12.4422 7.99993 12.9287 7.49993 12.9287 6.89993C12.9287 6.29993 12.4422 5.79993 11.8584 5.79993C11.2746 5.79993 10.7881 6.29993 10.7881 6.89993C10.7881 7.49993 11.2746 7.99993 11.8584 7.99993Z" fill="white"/>
</svg>
