<svg width="464" height="324" viewBox="0 0 464 324" fill="none" xmlns="http://www.w3.org/2000/svg">
<path d="M355.341 0V36.1594H403.1L238.253 201.006L165.209 127.872L0 297.975L26.0094 323.169L165.572 179.528L238.253 252.209L427.75 62.7125V107.753H464V0H355.341Z" fill="#818181"/>
</svg>
